nearjsonrpc: Introduction • nearjsonrpc
…
all_keys_df

## # A tibble: 49 × 8
##    block_hash block_height public_key   nonce allowance method_names receiver_id
##    <chr>             <int> <chr>        <dbl> <chr>     <chr>        <chr>      
##  1 5xFwaNhLG…    176807303 ed25519:5… 1.4 e 1 23318196… add_request… vitalik.ne…
##  2 5xFwaNhLG…    176807303 ed25519:6… 1.5 e 1 NA        add_request… vitalik.ne…
##  3 5xFwaNhLG…    176807303 ed25519:7… 0       25000000… NA           claim-toke…
##  4 5xFwaNhLG…    176807303 ed25519:7… 5.24e13 25000000… NA           launchpad.…
##  5 5xFwaNhLG…    176807303 ed25519:9… 3.1 e 1 NA        confirm      vitalik.ne…
##  6 5xFwaNhLG…    176807303 ed25519:D… 5.24e13 24755542… add_request… vitalik.ne…
##  7 5xFwaNhLG…    176807303 ed25519:D… 3   e 0 NA        NA           NA         
##  8 5xFwaNhLG…    176807303 ed25519:5… 1.4 e 1 23318196… add_request… vitalik.ne…
##  9 5xFwaNhLG…    176807303 ed25519:6… 1.5 e 1 NA        add_request… vitalik.ne…
## 10 5xFwaNhLG…    176807303 ed25519:7… 0       25000000… NA           claim-toke…
## # ℹ 39 more rows
## # ℹ 1 more variable: permission_type <chr>
…
